{
  "US_star_blue_giant":{
    "name":"Blue Giant",
    "descriptionId":"star_blue_giant",
    "tilt":0,
    "pitch":0,
    "rotation":-3,
    "planetColor":[
      255,
      255,
      255,
      255
    ],
    "atmosphereThickness":0.25,
    "atmosphereThicknessMin":10,
    "atmosphereColor":[
      127,
      190,
      255,
      255
    ],
    "texture":"graphics/planets/US_star_textureCustomBlue.jpg",
    "icon":"graphics/warroom/icon_star.png",
    "iconColor":[
      127,
      190,
      255,
      255
    ],
    "starCoronaSprite":"graphics/fx/US_star_halo_intense.png",
    "starCoronaColor":[
      127,
      190,
      255,
      60
    ],
    "starCoronaSizeMult":5.12,
    "isStar":true,
    "lightPosition":[
      0,
      0,
      10
    ],
    
  },
  "US_star_yellow":{
    "name":"Yellow Star",
    "descriptionId":"star_yellow",
    "tilt":0,
    "pitch":0,
    "rotation":-3,
    "planetColor":[
      255,
      255,
      255,
      255
    ],
    "atmosphereThickness":0.25,
    "atmosphereThicknessMin":10,
    "atmosphereColor":[
      255,
      255,
      160,
      255
    ],
    "texture":"graphics/planets/US_star_textureCustomYellow.jpg",
    "icon":"graphics/warroom/icon_star.png",
    "iconColor":[
      255,
      255,
      0,
      255
    ],
    "starCoronaSprite":"graphics/fx/US_star_halo_intense.png",
    "starCoronaColor":[
      255,
      255,
      150,
      60
    ],
    "starCoronaSizeMult":5.12,
    "isStar":true,
    "lightPosition":[
      0,
      0,
      10
    ],

  },
  "US_star_orange":{
    "name":"Orange Star",
    "descriptionId":"star_orange",
    "aOrAn":"an",
    "tilt":0,
    "pitch":0,
    "rotation":-3,
    "planetColor":[
      255,
      255,
      255,
      255
    ],
    "atmosphereThickness":0.25,
    "atmosphereThicknessMin":10,
    "atmosphereColor":[
      255,
      200,
      160,
      255
    ],
    "texture":"graphics/planets/US_star_textureCustomOrange.jpg",
    "icon":"graphics/warroom/icon_star.png",
    "iconColor":[
      255,
      135,
      40,
      255
    ],
    "starCoronaSprite":"graphics/fx/US_star_halo_intense.png",
    "starCoronaColor":[
      255,
      240,
      150,
      60
    ],
    "starCoronaSizeMult":5.12,
    "isStar":true,
    "lightPosition":[
      0,
      0,
      10
    ],

  },
  "US_star_red_giant":{
    "name":"Red Giant",
    "descriptionId":"star_red_giant",
    "tilt":-10,
    "pitch":0,
    "rotation":-3,
    "planetColor":[
      255,
      255,
      255,
      255
    ],
    "atmosphereThickness":0.5,
    "atmosphereThicknessMin":10,
    "atmosphereColor":[
      255,
      50,
      0,
      212
    ],
    "texture":"graphics/planets/US_star_textureCustomRed.jpg",
    "icon":"graphics/warroom/icon_star.png",
    "iconColor":[
      255,
      0,
      0,
      255
    ],
    "isStar":true,
    "lightPosition":[
      0,
      0,
      8
    ],
    "starCoronaSprite":"graphics/fx/US_star_halo_unstable.png",
    "starCoronaColor":[
      255,
      0,
      0,
      100
    ],
    "starCoronaSizeMult":5.12,

  },
  "US_star_white":{
    "name":"White Dwarf",
    "descriptionId":"star_white",
    "tilt":0,
    "pitch":0,
    "rotation":-3,
    "planetColor":[
      255,
      255,
      255,
      255
    ],
    "atmosphereThickness":0.25,
    "atmosphereThicknessMin":10,
    "atmosphereColor":[
      255,
      255,
      255,
      255
    ],
    "texture":"graphics/planets/US_star_textureCustomWhite.jpg",
    "icon":"graphics/warroom/icon_star.png",
    "iconColor":[
      255,
      255,
      255,
      255
    ],
    "starCoronaSprite":"graphics/fx/US_star_halo_unstable.png",
    "starCoronaColor":[
      255,
      255,
      255,
      60
    ],
    "starCoronaSizeMult":5.12,
    "isStar":true,
    "lightPosition":[
      0,
      0,
      10
    ],

  },
  "US_star_browndwarf":{
    "name":"Brown Dwarf",
    "descriptionId":"star_browndwarf",
    "tilt":-16,
    "pitch":10,
    "rotation":-5,
    "planetColor":[
      255,
      255,
      255,
      255
    ],
    "atmosphereThickness":0.5,
    "atmosphereThicknessMin":10,
    "atmosphereColor":[
      200,
      75,
      20,
      200
    ],
    "texture":"graphics/planets/US_star_textureCustomBrown.jpg",
    "icon":"graphics/warroom/icon_star.png",
    "iconColor":[
      240,
      75,
      20,
      255
    ],
    "isStar":true,
    "lightPosition":[
      0,
      0,
      10
    ],
    "starCoronaSprite":"graphics/fx/US_star_halo_unstable.png",
    "starCoronaColor":[
      255,
      50,
      10,
      100
    ],
    "starCoronaSizeMult":5.12,

  },

  "US_gas_giant":{
    "name":"Gas Giant",
    "descriptionId":"gas_giant",
    "tilt":-10,
    "pitch":-15,
    "rotation":-3,
    "planetColor":[
      255,
      255,
      255,
      255
    ],
    "atmosphereThickness":0.18,
    "atmosphereThicknessMin":62,
    "atmosphereColor":[
      50,
      74,
      120,
      100
    ],
    "texture":"graphics/planets/US_planet_textureBlueGiant.jpg",
    "icon":"graphics/warroom/icon_planet.png",
    "iconColor":[
      220,
      180,
      100,
      255
    ],
    "isStar":false,
    "isGasGiant":true,
    "lightPosition":[
      5,
      -2,
      3
    ],
    "cloudTexture":"graphics/planets/US_clouds_textureGiant.png",
    "cloudColor":[
      150,
      174,
      220,
      100
    ],
    "cloudRotation":-2,

  },
  "US_gas_giantB":{
    "name":"Gas Giant",
    "descriptionId":"gas_giant",
    "tilt":0,
    "pitch":0,
    "rotation":-3,
    "planetColor":[
      255,
      255,
      255,
      255
    ],
    "atmosphereThickness":0.18,
    "atmosphereThicknessMin":62,
    "atmosphereColor":[
      140,
      100,
      45,
      140
    ],
    "texture":"graphics/planets/US_planet_textureOrangeGiant.jpg",
    "icon":"graphics/warroom/icon_planet.png",
    "iconColor":[
      220,
      180,
      100,
      255
    ],
    "isStar":false,
    "isGasGiant":true,
    "lightPosition":[
      5,
      -2,
      3
    ],
    "cloudTexture":"graphics/planets/US_clouds_textureGiant.png",
    "cloudColor":[
      150,
      174,
      220,
      100
    ],
    "cloudRotation":-2,

  },

  "US_lava":{
    "name":"Volcanic",
    "descriptionId":"lava",
    "tilt":-20,
    "pitch":-5,
    "rotation":-3.5,
    "planetColor":[
      255,
      255,
      255,
      255
    ],
    "atmosphereThickness":0.1,
    "atmosphereThicknessMin":30,
    "atmosphereColor":[
      215,
      50,
      15,
      60
    ],
    "texture":"graphics/planets/US_planet_textureHot.jpg",
    "icon":"graphics/warroom/icon_planet.png",
    "iconColor":[
      215,
      115,
      55,
      255
    ],
    "isStar":false,
    "lightPosition":[
      0,
      0,
      50
    ],
    "glowTexture":"graphics/planets/US_planet_textureHot_light.jpg",
    "glowColor":[
      255,
      255,
      255,
      255
    ],
    "useReverseLightForGlow":false,

  },
  "US_volcanic":{
    "name":"Volcanic",
    "descriptionId":"lava_minor",
    "tilt":-20,
    "pitch":-5,
    "rotation":-2,
    "planetColor":[
      255,
      255,
      255,
      255
    ],
    "atmosphereThickness":0.1,
    "atmosphereThicknessMin":30,
    "atmosphereColor":[
      215,
      50,
      15,
      60
    ],
    "texture":"graphics/planets/US_planet_textureVolcanic.jpg",
    "icon":"graphics/warroom/icon_planet.png",
    "iconColor":[
      215,
      115,
      55,
      255
    ],
    "isStar":false,
    "lightPosition":[
      0,
      0,
      50
    ],
    "glowTexture":"graphics/planets/US_planet_textureVolcanic_light.jpg",
    "glowColor":[
      255,
      255,
      255,
      255
    ],
    "useReverseLightForGlow":false,

  },

  "US_iceA":{
    "name":"Frozen",
    "descriptionId":"frozen",
    "tilt":3,
    "pitch":0,
    "rotation":-3,
    "planetColor":[
      255,
      255,
      255,
      255
    ],
    "atmosphereThickness":0.08,
    "atmosphereThicknessMin":30,
    "atmosphereColor":[
      130,
      220,
      230,
      90
    ],
    "texture":"graphics/planets/US_planet_textureIceA.jpg",
    "icon":"graphics/warroom/icon_planet.png",
    "iconColor":[
      155,
      175,
      255,
      255
    ],
    "isStar":false,
    "lightPosition":[
      -10,
      1,
      0
    ],
    "cloudTexture":"graphics/planets/US_clouds_textureSwept.png",
    "cloudColor":[
      120,
      210,
      230,
      100
    ],
    "cloudRotation":-3,

  },
  "US_iceB":{
    "name":"Frozen",
    "descriptionId":"frozen",
    "tilt":-5,
    "pitch":0,
    "rotation":-3,
    "planetColor":[
      255,
      255,
      255,
      255
    ],
    "atmosphereThickness":0.08,
    "atmosphereThicknessMin":30,
    "atmosphereColor":[
      130,
      220,
      230,
      90
    ],
    "texture":"graphics/planets/US_planet_textureIceB.jpg",
    "icon":"graphics/warroom/icon_planet.png",
    "iconColor":[
      155,
      175,
      255,
      255
    ],
    "isStar":false,
    "lightPosition":[
      -10,
      1,
      0
    ],
    "cloudTexture":"graphics/planets/US_clouds_textureSwept.png",
    "cloudColor":[
      120,
      210,
      230,
      100
    ],
    "cloudRotation":-3,

  },
  "US_blue":{
    "name":"Cryovolcanic",
    "descriptionId":"cryovolcanic",
    "tilt":30,
    "pitch":0,
    "rotation":-3,
    "planetColor":[
      255,
      255,
      255,
      255
    ],
    "atmosphereThickness":0.08,
    "atmosphereThicknessMin":30,
    "atmosphereColor":[
      130,
      220,
      230,
      90
    ],
    "texture":"graphics/planets/US_planet_textureChondrite.jpg",
    "icon":"graphics/warroom/icon_planet.png",
    "iconColor":[
      155,
      175,
      255,
      255
    ],
    "isStar":false,
    "lightPosition":[
      -10,
      1,
      0
    ],
    "cloudTexture":"graphics/planets/US_clouds_textureSwept.png",
    "cloudColor":[
      120,
      210,
      230,
      100
    ],
    "cloudRotation":-1,

  },

  "US_green":{
    "name":"Toxic",
    "tilt":24,
    "pitch":-24,
    "rotation":-3,
    "planetColor":[
      255,
      215,
      100,
      255
    ],
    "atmosphereThickness":0.07,
    "atmosphereThicknessMin":7,
    "atmosphereColor":[
      255,
      235,
      145,
      220
    ],
    "texture":"graphics/planets/US_planet_textureChlorine.jpg",
    "icon":"graphics/warroom/icon_planet.png",
    "iconColor":[
      255,
      235,
      100,
      255
    ],
    "isStar":false,
    "lightPosition":[
      0,
      0,
      10
    ],
    "cloudTexture":"graphics/planets/US_clouds_textureMedium.png",
    "cloudColor":[
      245,
      255,
      235,
      220
    ],
    "cloudRotation":-3,

  },
  "US_acid":{
    "name":"Acid",
    "aOrAn":"an",
    "tilt":30,
    "pitch":-30,
    "rotation":-3,
    "planetColor":[
      255,
      255,
      255,
      255
    ],
    "atmosphereThickness":0.07,
    "atmosphereThicknessMin":7,
    "atmosphereColor":[
      200,
      250,
      145,
      220
    ],
    "texture":"graphics/planets/US_planet_textureAcid.jpg",
    "icon":"graphics/warroom/icon_planet.png",
    "iconColor":[
      215,
      255,
      100,
      255
    ],
    "isStar":false,
    "lightPosition":[
      0,
      0,
      10
    ],
    "cloudTexture":"graphics/planets/US_clouds_textureSoft.png",
    "cloudColor":[
      245,
      255,
      245,
      190
    ],
    "cloudRotation":-1,

  },
  "US_acidRain":{
    "name":"Acid",
    "descriptionId":"US_acid",
    "aOrAn":"an",
    "tilt":30,
    "pitch":-30,
    "rotation":-3,
    "planetColor":[
      255,
      255,
      255,
      255
    ],
    "atmosphereThickness":0.07,
    "atmosphereThicknessMin":7,
    "atmosphereColor":[
      200,
      250,
      145,
      220
    ],
    "texture":"graphics/planets/US_planet_textureAcid.jpg",
    "icon":"graphics/warroom/icon_planet.png",
    "iconColor":[
      215,
      255,
      100,
      255
    ],
    "isStar":false,
    "lightPosition":[
      0,
      0,
      10
    ],
    "cloudTexture":"graphics/planets/US_clouds_textureHeavy.png",
    "cloudColor":[
      225,
      255,
      235,
      200
    ],
    "cloudRotation":-2,

  },
  "US_acidWind":{
    "name":"Acid",
    "descriptionId":"US_acid",
    "aOrAn":"an",
    "tilt":30,
    "pitch":-30,
    "rotation":-3,
    "planetColor":[
      255,
      255,
      255,
      255
    ],
    "atmosphereThickness":0.07,
    "atmosphereThicknessMin":7,
    "atmosphereColor":[
      200,
      250,
      145,
      220
    ],
    "texture":"graphics/planets/US_planet_textureAcid.jpg",
    "icon":"graphics/warroom/icon_planet.png",
    "iconColor":[
      215,
      255,
      100,
      255
    ],
    "isStar":false,
    "lightPosition":[
      0,
      0,
      10
    ],
    "cloudTexture":"graphics/planets/US_clouds_textureSwept.png",
    "cloudColor":[
      225,
      255,
      225,
      220
    ],
    "cloudRotation":-4,

  },

  "US_barrenA":{
    "name":"Barren",
    "descriptionId":"barren",
    "tilt":-27,
    "pitch":2,
    "rotation":-3,
    "planetColor":[
      255,
      255,
      255,
      255
    ],
    "atmosphereThickness":0,
    "atmosphereThicknessMin":12,
    "atmosphereColor":[
      100,
      140,
      160,
      155
    ],
    "texture":"graphics/planets/US_planet_textureBarrenA.jpg",
    "icon":"graphics/warroom/icon_planet.png",
    "iconColor":[
      102,
      103,
      106,
      255
    ],
    "isStar":false,
    "lightPosition":[
      -2,
      -8,
      10
    ],

  },
  "US_barrenB":{
    "name":"Barren",
    "descriptionId":"barren",
    "tilt":27,
    "pitch":10,
    "rotation":-3,
    "planetColor":[
      255,
      255,
      255,
      255
    ],
    "atmosphereThickness":0,
    "atmosphereThicknessMin":12,
    "atmosphereColor":[
      100,
      140,
      160,
      155
    ],
    "texture":"graphics/planets/US_planet_textureBarrenB.jpg",
    "icon":"graphics/warroom/icon_planet.png",
    "iconColor":[
      102,
      103,
      106,
      255
    ],
    "isStar":false,
    "lightPosition":[
      -2,
      -8,
      10
    ],

  },
  "US_barrenC":{
    "name":"Barren",
    "descriptionId":"barren",
    "tilt":-5,
    "pitch":2,
    "rotation":-3,
    "planetColor":[
      255,
      255,
      255,
      255
    ],
    "atmosphereThickness":0,
    "atmosphereThicknessMin":12,
    "atmosphereColor":[
      100,
      140,
      160,
      155
    ],
    "texture":"graphics/planets/US_planet_textureBarrenC.jpg",
    "icon":"graphics/warroom/icon_planet.png",
    "iconColor":[
      102,
      103,
      106,
      255
    ],
    "isStar":false,
    "lightPosition":[
      -2,
      -8,
      10
    ],

  },
  "US_barrenD":{
    "name":"Barren",
    "descriptionId":"barren",
    "tilt":-15,
    "pitch":2,
    "rotation":-3,
    "planetColor":[
      255,
      255,
      255,
      255
    ],
    "atmosphereThickness":0,
    "atmosphereThicknessMin":12,
    "atmosphereColor":[
      100,
      140,
      160,
      155
    ],
    "texture":"graphics/planets/US_planet_textureBarrenD.jpg",
    "icon":"graphics/warroom/icon_planet.png",
    "iconColor":[
      102,
      103,
      106,
      255
    ],
    "isStar":false,
    "lightPosition":[
      -2,
      -8,
      10
    ],

  },
  "US_barrenE":{
    "name":"Barren",
    "descriptionId":"barren",
    "tilt":10,
    "pitch":12,
    "rotation":-3,
    "planetColor":[
      255,
      255,
      255,
      255
    ],
    "atmosphereThickness":0,
    "atmosphereThicknessMin":12,
    "atmosphereColor":[
      100,
      140,
      160,
      155
    ],
    "texture":"graphics/planets/US_planet_textureBarrenE.jpg",
    "icon":"graphics/warroom/icon_planet.png",
    "iconColor":[
      102,
      103,
      106,
      255
    ],
    "isStar":false,
    "lightPosition":[
      -2,
      -8,
      10
    ],

  },
  "US_barrenF":{
    "name":"Barren",
    "descriptionId":"barren",
    "tilt":-7,
    "pitch":2,
    "rotation":-3,
    "planetColor":[
      255,
      255,
      255,
      255
    ],
    "atmosphereThickness":0,
    "atmosphereThicknessMin":12,
    "atmosphereColor":[
      100,
      140,
      160,
      155
    ],
    "texture":"graphics/planets/US_planet_textureBarrenF.jpg",
    "icon":"graphics/warroom/icon_planet.png",
    "iconColor":[
      102,
      103,
      106,
      255
    ],
    "isStar":false,
    "lightPosition":[
      -2,
      -8,
      10
    ],

  },

  "US_azure":{
    "name":"Azure",
    "aOrAn":"an",
    "tilt":0,
    "pitch":0,
    "rotation":-3,
    "planetColor":[
      255,
      255,
      255,
      255
    ],
    "atmosphereThickness":0.25,
    "atmosphereThicknessMin":12,
    "atmosphereColor":[
      100,
      140,
      160,
      155
    ],
    "texture":"graphics/planets/US_planet_textureAzure.jpg",
    "icon":"graphics/warroom/icon_planet.png",
    "iconColor":[
      225,
      225,
      255,
      255
    ],
    "isStar":false,
    "lightPosition":[
      12,
      -2,
      -3
    ],

  },
  "US_burnt":{
    "name":"Burnt",
    "tilt":-27,
    "pitch":2,
    "rotation":-3,
    "planetColor":[
      255,
      255,
      255,
      255
    ],
    "atmosphereThickness":0,
    "atmosphereThicknessMin":12,
    "atmosphereColor":[
      100,
      140,
      160,
      155
    ],
    "texture":"graphics/planets/US_planet_textureBurnt.jpg",
    "icon":"graphics/warroom/icon_planet.png",
    "iconColor":[
      102,
      103,
      106,
      255
    ],
    "isStar":false,
    "lightPosition":[
      -2,
      -8,
      10
    ],

  },
  "US_dust":{
    "name":"Dust",
    "tilt":30,
    "pitch":0,
    "rotation":-3,
    "planetColor":[
      255,
      255,
      255,
      255
    ],
    "atmosphereThickness":0.1,
    "atmosphereThicknessMin":40,
    "atmosphereColor":[
      150,
      150,
      145,
      130
    ],
    "texture":"graphics/planets/US_planet_textureDust.jpg",
    "icon":"graphics/warroom/icon_planet.png",
    "iconColor":[
      200,
      170,
      145,
      255
    ],
    "isStar":false,
    "lightPosition":[
      -2,
      2,
      7
    ],
    "cloudTexture":"graphics/planets/US_clouds_textureSwept.png",
    "cloudColor":[
      220,
      190,
      160,
      180
    ],
    "cloudRotation":-3,

  },

  "US_desertA":{
    "name":"Desertic",
    "descriptionId":"desert",
    "aOrAn":"a",
    "tilt":20,
    "pitch":0,
    "rotation":-3,
    "planetColor":[
      255,
      255,
      255,
      255
    ],
    "atmosphereThickness":0.1,
    "atmosphereThicknessMin":40,
    "atmosphereColor":[
      140,
      150,
      165,
      140
    ],
    "texture":"graphics/planets/US_planet_textureDesertA.jpg",
    "icon":"graphics/warroom/icon_planet.png",
    "iconColor":[
      200,
      170,
      145,
      255
    ],
    "isStar":false,
    "lightPosition":[
      1,
      -3,
      8
    ],
    
  },
  "US_desertB":{
    "name":"Desertic",
    "descriptionId":"desert",
    "aOrAn":"a",
    "tilt":10,
    "pitch":0,
    "rotation":-3,
    "planetColor":[
      255,
      255,
      255,
      255
    ],
    "atmosphereThickness":0.1,
    "atmosphereThicknessMin":40,
    "atmosphereColor":[
      140,
      150,
      165,
      140
    ],
    "texture":"graphics/planets/US_planet_textureDesertB.jpg",
    "icon":"graphics/warroom/icon_planet.png",
    "iconColor":[
      200,
      170,
      145,
      255
    ],
    "isStar":false,
    "lightPosition":[
      1,
      -3,
      8
    ],
    
  },
  "US_desertC":{
    "name":"Desertic",
    "descriptionId":"desert",
    "aOrAn":"a",
    "tilt":15,
    "pitch":0,
    "rotation":-3,
    "planetColor":[
      255,
      255,
      255,
      255
    ],
    "atmosphereThickness":0.1,
    "atmosphereThicknessMin":40,
    "atmosphereColor":[
      140,
      150,
      165,
      140
    ],
    "texture":"graphics/planets/US_planet_textureDesertC.jpg",
    "icon":"graphics/warroom/icon_planet.png",
    "iconColor":[
      200,
      170,
      145,
      255
    ],
    "isStar":false,
    "lightPosition":[
      1,
      -3,
      8
    ],
    
  },

  "US_red":{
    "name":"Crimson",
    "tilt":30,
    "pitch":0,
    "rotation":-3,
    "planetColor":[
      255,
      255,
      255,
      255
    ],
    "atmosphereThickness":0.1,
    "atmosphereThicknessMin":40,
    "atmosphereColor":[
      150,
      150,
      145,
      130
    ],
    "texture":"graphics/planets/US_planet_textureCarbide.jpg",
    "icon":"graphics/warroom/icon_planet.png",
    "iconColor":[
      200,
      120,
      105,
      255
    ],
    "isStar":false,
    "lightPosition":[
      -2,
      2,
      7
    ],
    "cloudTexture":"graphics/planets/US_clouds_textureSoft.png",
    "cloudColor":[
      220,
      190,
      160,
      180
    ],
    "cloudRotation":-2,

  },
  "US_redWind":{
    "name":"Crimson",
    "descriptionId":"US_red",
    "tilt":30,
    "pitch":0,
    "rotation":-3,
    "planetColor":[
      255,
      255,
      255,
      255
    ],
    "atmosphereThickness":0.1,
    "atmosphereThicknessMin":40,
    "atmosphereColor":[
      150,
      150,
      145,
      130
    ],
    "texture":"graphics/planets/US_planet_textureCarbide.jpg",
    "icon":"graphics/warroom/icon_planet.png",
    "iconColor":[
      200,
      120,
      105,
      255
    ],
    "isStar":false,
    "lightPosition":[
      -2,
      2,
      7
    ],
    "cloudTexture":"graphics/planets/US_clouds_textureSwept.png",
    "cloudColor":[
      220,
      190,
      160,
      140
    ],
    "cloudRotation":-5,

  },

  "US_lifelessArid":{
    "name":"Arid Lifeless",
    "descriptionId":"US_lifeless",
    "aOrAn":"an",
    "tilt":10,
    "pitch":0,
    "rotation":-2,
    "planetColor":[
      255,
      255,
      255,
      255
    ],
    "atmosphereThickness":0.1,
    "atmosphereThicknessMin":40,
    "atmosphereColor":[
      120,
      140,
      165,
      100
    ],
    "texture":"graphics/planets/US_planet_textureLifelessArid.jpg",
    "icon":"graphics/warroom/icon_planet.png",
    "iconColor":[
      120,
      140,
      160,
      255
    ],
    "isStar":false,
    "lightPosition":[
      1,
      -3,
      8
    ],
    "cloudTexture":"graphics/planets/US_clouds_textureSoft.png",
    "cloudColor":[
      220,
      220,
      230,
      200
    ],
    "cloudRotation":-3,

  },
  "US_arid":{
    "name":"Unstable Arid",
    "aOrAn":"an",
    "tilt":30,
    "pitch":0,
    "rotation":-3,
    "planetColor":[
      255,
      255,
      255,
      255
    ],
    "atmosphereThickness":0.1,
    "atmosphereThicknessMin":40,
    "atmosphereColor":[
      140,
      150,
      165,
      140
    ],
    "texture":"graphics/planets/US_planet_textureDesertic.jpg",
    "icon":"graphics/warroom/icon_planet.png",
    "iconColor":[
      200,
      170,
      145,
      255
    ],
    "isStar":false,
    "lightPosition":[
      1,
      -3,
      8
    ],
    "cloudTexture":"graphics/planets/US_clouds_textureSoft.png",
    "cloudColor":[
      190,
      180,
      170,
      100
    ],
    "cloudRotation":-1,

  },
  "US_purple":{
    "name":"Methane",
    "tilt":24,
    "pitch":-24,
    "rotation":-3,
    "planetColor":[
      255,
      215,
      100,
      255
    ],
    "atmosphereThickness":0.07,
    "atmosphereThicknessMin":7,
    "atmosphereColor":[
      255,
      235,
      145,
      220
    ],
    "texture":"graphics/planets/US_planet_textureCimmerian.jpg",
    "icon":"graphics/warroom/icon_planet.png",
    "iconColor":[
      255,
      235,
      100,
      255
    ],
    "isStar":false,
    "lightPosition":[
      0,
      0,
      10
    ],
    "cloudTexture":"graphics/planets/US_clouds_textureSoft.png",
    "cloudColor":[
      245,
      255,
      235,
      220
    ],
    "cloudRotation":-2,

  },
  "US_crimson":{
    "name":"Bombarded Lifeless",
    "aOrAn":"an",
    "tilt":30,
    "pitch":0,
    "rotation":-3,
    "planetColor":[
      255,
      255,
      255,
      255
    ],
    "atmosphereThickness":0.1,
    "atmosphereThicknessMin":40,
    "atmosphereColor":[
      140,
      150,
      165,
      140
    ],
    "texture":"graphics/planets/US_planet_textureCrimson.jpg",
    "icon":"graphics/warroom/icon_planet.png",
    "iconColor":[
      200,
      170,
      145,
      255
    ],
    "isStar":false,
    "lightPosition":[
      1,
      -3,
      8
    ],
    "cloudTexture":"graphics/planets/US_clouds_textureSoft.png",
    "cloudColor":[
      255,
      255,
      255,
      200
    ],
    "cloudRotation":-1,

  },

  "US_lifeless":{
    "name":"Lifeless",
    "aOrAn":"a",
    "tilt":15,
    "pitch":2,
    "rotation":-2,
    "planetColor":[
      255,
      255,
      255,
      255
    ],
    "atmosphereThickness":0.1,
    "atmosphereThicknessMin":40,
    "atmosphereColor":[
      120,
      140,
      165,
      100
    ],
    "texture":"graphics/planets/US_planet_textureLifeless.jpg",
    "icon":"graphics/warroom/icon_planet.png",
    "iconColor":[
      120,
      140,
      160,
      255
    ],
    "isStar":false,
    "lightPosition":[
      1,
      -3,
      8
    ],
    "cloudTexture":"graphics/planets/US_clouds_textureMedium.png",
    "cloudColor":[
      220,
      220,
      230,
      240
    ],
    "cloudRotation":-1,

  },
  "US_alkali":{
    "name":"Alkali",
    "aOrAn":"an",
    "tilt":30,
    "pitch":0,
    "rotation":-3,
    "planetColor":[
      255,
      255,
      255,
      255
    ],
    "atmosphereThickness":0.1,
    "atmosphereThicknessMin":40,
    "atmosphereColor":[
      140,
      150,
      165,
      140
    ],
    "texture":"graphics/planets/US_planet_textureAlkali.jpg",
    "icon":"graphics/warroom/icon_planet.png",
    "iconColor":[
      200,
      220,
      145,
      255
    ],
    "isStar":false,
    "lightPosition":[
      1,
      -3,
      8
    ],
    "cloudTexture":"graphics/planets/US_clouds_textureMedium.png",
    "cloudColor":[
      190,
      180,
      170,
      240
    ],
    "cloudRotation":-2,

  },
  "US_jungle":{
    "name":"Jungle",
    "descriptionId":"jungle",
    "aOrAn":"a",
    "tilt":15,
    "pitch":0,
    "rotation":-3,
    "planetColor":[
      255,
      255,
      255,
      255
    ],
    "atmosphereThickness":0.2,
    "atmosphereThicknessMin":40,
    "atmosphereColor":[
      110,
      150,
      165,
      140
    ],
    "texture":"graphics/planets/US_planet_textureJungle.jpg",
    "icon":"graphics/warroom/icon_planet.png",
    "iconColor":[
      120,
      220,
      145,
      255
    ],
    "isStar":false,
    "lightPosition":[
      1,
      -3,
      8
    ],
    "cloudTexture":"graphics/planets/US_clouds_textureHeavy.png",
    "cloudColor":[
      190,
      180,
      170,
      240
    ],
    "cloudRotation":-2,

  },
  "US_auric":{
    "name":"Auric",
    "aOrAn":"an",
    "tilt":20,
    "pitch":-2,
    "rotation":-5,
    "planetColor":[
      255,
      255,
      255,
      255
    ],
    "atmosphereThickness":0.1,
    "atmosphereThicknessMin":20,
    "atmosphereColor":[
      165,
      140,
      115,
      140
    ],
    "texture":"graphics/planets/US_planet_textureAuric.jpg",
    "icon":"graphics/warroom/icon_planet.png",
    "iconColor":[
      165,
      155,
      100,
      255
    ],
    "isStar":false,
    "lightPosition":[
      1,
      2,
      8
    ],
    "cloudTexture":"graphics/planets/clouds_banded01.png",
    "cloudColor":[
      220,
      160,
      100,
      220
    ],
    "cloudRotation":-2,

  },
  "US_auricCloudy":{
    "name":"Auric",
    "descriptionId":"US_auric",
    "aOrAn":"an",
    "tilt":20,
    "pitch":-2,
    "rotation":-5,
    "planetColor":[
      255,
      255,
      255,
      255
    ],
    "atmosphereThickness":0.1,
    "atmosphereThicknessMin":20,
    "atmosphereColor":[
      165,
      140,
      115,
      140
    ],
    "texture":"graphics/planets/US_planet_textureAuric.jpg",
    "icon":"graphics/warroom/icon_planet.png",
    "iconColor":[
      165,
      155,
      100,
      255
    ],
    "isStar":false,
    "lightPosition":[
      1,
      2,
      8
    ],
    "cloudTexture":"graphics/planets/US_clouds_textureHeavy.png",
    "cloudColor":[
      220,
      160,
      100,
      220
    ],
    "cloudRotation":-5
  },

  "US_water":{
    "name":"Archipelago",
    "descriptionId":"water",
    "tilt":-30,
    "pitch":15,
    "rotation":-3,
    "planetColor":[
      255,
      255,
      255,
      255
    ],
    "atmosphereThickness":0.2,
    "atmosphereThicknessMin":62,
    "atmosphereColor":[
      30,
      90,
      140,
      130
    ],
    "texture":"graphics/planets/US_planet_textureCyanic.jpg",
    "icon":"graphics/warroom/icon_planet.png",
    "iconColor":[
      45,
      98,
      174,
      255
    ],
    "isStar":false,
    "lightPosition":[
      -10,
      -10,
      1
    ],
    "cloudTexture":"graphics/planets/US_clouds_textureSoft.png",
    "cloudColor":[
      255,
      255,
      255,
      200
    ],
    "cloudRotation":-3,

  },
  "US_waterB":{
    "name":"Archipelago",
    "descriptionId":"water",
    "tilt":10,
    "pitch":15,
    "rotation":-3,
    "planetColor":[
      255,
      255,
      255,
      255
    ],
    "atmosphereThickness":0.2,
    "atmosphereThicknessMin":62,
    "atmosphereColor":[
      30,
      90,
      140,
      130
    ],
    "texture":"graphics/planets/US_planet_textureWater.jpg",
    "icon":"graphics/warroom/icon_planet.png",
    "iconColor":[
      45,
      98,
      174,
      255
    ],
    "isStar":false,
    "lightPosition":[
      -10,
      -10,
      1
    ],
    "cloudTexture":"graphics/planets/US_clouds_textureHeavy.png",
    "cloudColor":[
      255,
      255,
      255,
      200
    ],
    "cloudRotation":-2,
  },

  "US_continent":{
    "name":"Continental",
    "aOrAn":"a",
    "tilt":15,
    "pitch":5,
    "rotation":-2,
    "planetColor":[
      255,
      255,
      255,
      255
    ],
    "atmosphereThickness":0.1,
    "atmosphereThicknessMin":40,
    "atmosphereColor":[
      100,
      130,
      165,
      140
    ],
    "texture":"graphics/planets/US_planet_textureContinental.jpg",
    "icon":"graphics/warroom/icon_planet.png",
    "iconColor":[
      120,
      140,
      200,
      255
    ],
    "isStar":false,
    "lightPosition":[
      1,
      -3,
      8
    ],
    "cloudTexture":"graphics/planets/US_clouds_textureMedium.png",
    "cloudColor":[
      220,
      220,
      230,
      240
    ],
    "cloudRotation":-3,

  },

  "US_magnetic":{
    "name":"Magnetic",
    "aOrAn":"a",
    "tilt":10,
    "pitch":0,
    "rotation":-3,
    "planetColor":[
      255,
      255,
      255,
      255
    ],
    "atmosphereThickness":0.1,
    "atmosphereThicknessMin":40,
    "atmosphereColor":[
      140,
      150,
      165,
      140
    ],
    "texture":"graphics/planets/US_planet_textureMagnetic.jpg",
    "icon":"graphics/warroom/icon_planet.png",
    "iconColor":[
      220,
      200,
      145,
      255
    ],
    "isStar":false,
    "lightPosition":[
      1,
      -3,
      8
    ],
    "cloudTexture":"graphics/planets/US_clouds_textureMedium.png",
    "cloudColor":[
      190,
      180,
      170,
      240
    ],
    "cloudRotation":-2,
  },
  "US_artificial":{
    "name":"Artificial",
    "aOrAn":"an",
    "tilt":5,
    "pitch":7,
    "rotation":-1,
    "planetColor":[
      255,
      255,
      255,
      255
    ],
    "atmosphereThickness":0,
    "texture":"graphics/planets/US_planet_textureArtificial.jpg",
    "icon":"graphics/warroom/icon_planet.png",
    "iconColor":[
      100,
      100,
      75,
      255
    ],
    "isStar":false,
    "lightPosition":[
      -10,
      0,
      7
    ],

  },
  "US_storm":{
    "name":"Windy Arid",
    "descriptionId":"US_storm",
    "tilt":20,
    "pitch":5,
    "rotation":-2,
    "planetColor":[
      255,
      255,
      255,
      255
    ],
    "atmosphereThickness":0.1,
    "atmosphereThicknessMin":40,
    "atmosphereColor":[
      150,
      150,
      145,
      130
    ],
    "texture":"graphics/planets/US_planet_textureStorm.jpg",
    "icon":"graphics/warroom/icon_planet.png",
    "iconColor":[
      200,
      180,
      105,
      255
    ],
    "isStar":false,
    "lightPosition":[
      -2,
      2,
      7
    ],
    "cloudTexture":"graphics/planets/US_clouds_textureSwept.png",
    "cloudColor":[
      220,
      190,
      160,
      200
    ],
    "cloudRotation":-8,

  },

}