id,group,rank,order,hazard,reqSurvey,xpMult,requiresAll,requiresAny,requiresNotAny,cat_giant,cat_barren,rocky_unstable,rocky_ice,cat_hab1,cat_lava,lava_minor,cat_frozen,cat_cryovolcanic,cat_irradiated,cat_toxic,toxic_cold,cat_hab5,cat_hab4,cat_hab3,terran-eccentric,jungle,water,arid,tundra,cat_hab2,multipliers >>>,tectonic_activity,extreme_tectonic_activity,low_gravity,high_gravity,hot,very_hot,cold,very_cold,dense_atmosphere,water_surface,mild_climate,extreme_weather,poor_light,inimical_biosphere,pollution
US_magnetic,,,10,0.5,FALSE,8,,,,,,,,,,,,,,,,,,,,,,,,,,,,,,,,,,,,,,,,
US_artificial,,,10,0,FALSE,8,,,,,,,,,,,,,,,,,,,,,,,,,,,,,,,,,,,,,,,,
US_storm,,,30,0.25,FALSE,8,,,,,,,,,,,,,,,,,,,,,,,,,,,,,,,,,,,,,,,,
US_special_no_pick,special,5,35,,,,,,,15,300,20,20,20,100,100,50,30,10,10,10,10,10,10,,10,10,10,10,10,,,,,,,,,,,,,,,,
US_shrooms,special,5,35,0,TRUE,16,,"farmland_poor,farmland_adequate,farmland_rich,farmland_bountiful,organics_trace,organics_common,organics_abundant,organics_plentiful",,0,0,0,0,0,0,0,0,0,0,0,0,1,1,1,,1,1,1,1,1,,,,,,,,,,,,,,,,
US_mind,special,5,35,0,TRUE,16,,"farmland_poor,farmland_adequate,farmland_rich,farmland_bountiful,organics_trace,organics_common,organics_abundant,organics_plentiful",,0,0,0,0,0,0,0,0,0,0,0,0,2,1,2,,1,1,1,1,1,,,,,,,,,,,,,,,,
US_bedrock,special,5,35,-0.5,TRUE,16,,"cold,very_cold",,0,0,0,0,0,0,0,1,1,0,0,0,,,,,,,0,0,0,,,,,,,,,,,,,,,,
US_tunnels,special,5,35,,TRUE,16,,"ore_sparse,ore_moderate,rare_ore_sparse,rare_ore_moderate","habitable,tectonic_activity,extreme_tectonic_activity,rare_ore_ultrarich,rare_ore_rich,rare_ore_abundant,ore_ultrarich,ore_rich,ore_abundant",,2,1,2,2,0,0,0,0,1,1,1,,,,,,,1,1,1,,,,,,,,,,,,,,,,
US_virus,special,5,35,0.5,TRUE,16,,"ruins_scattered, ruins_widespread, ruins_extensive, ruins_vast",decivilized,0,0,0,0,0,0,0,0,0,1,0,0,1,1,1,,2,2,2,2,2,,,,,,,,,,,,,,,,
US_religious,special,5,35,0,TRUE,16,,"ruins_scattered, ruins_widespread, ruins_extensive, ruins_vast",,0,0,0,0,0,0,0,0,0,0,0,0,2,2,2,,2,2,2,2,2,,,,,,,,,,,,,,,,
US_base,special,5,35,0,TRUE,16,,"ruins_scattered, ruins_widespread, ruins_extensive, ruins_vast",,0,0,0,0,0,0,0,0,0,2,0,0,2,2,2,,2,0,2,2,2,,,,,,,,,,,,,,,,
US_elevator,special,5,35,0,TRUE,16,,"ruins_scattered, ruins_widespread, farmland_poor, farmland_adequate, farmland_rich, farmland_bountiful","meteor_impacts, high_gravity, ruins_extensive, ruins_vast",0,0,0,0,0,0,0,0,0,2,0,0,2,2,2,,2,0,2,2,2,,,,,,,,,,,,,,,,
US_floating,special,5,35,-0.5,TRUE,16,,,,1,,,,,,,,,,,,,,,,,,,,,,,,,,,,,,,,,,,,
US_crash,special,5,35,-0.5,TRUE,16,,"cold,very_cold,hot,very_hot,no_atmosphere,thin_atmosphere,toxic_atmosphere,dense_atmosphere,extreme_weather,irradiated",mild_climate,,1,1,1,1,1,1,1,1,1,1,1,,,,,,,1,1,1,,,,,,,,,,,,,,,,