{
    "id": "audio_plus",
    "name": "ZZ Audio Plus",
    "author": "DarkRevenant",
    "utility": "true",
    "version": "1.1.2",
    "description": "Improves the music variety of the game. Improves certain vanilla sounds. Features work by Cycerin, Psiyon, and more.",
    "gameVersion": "0.9.1a"
}
