{
    "sunLightBrightnessScale":0.25,
    "sunLightBrightnessMax":1.0,
    "sunLightSpecularFactor":1.5,
    "sunLightZComponentMin":0.3,
    "sunLightZComponentMax":0.4,

    "enableShipExplosionWhiteout":false,

	"plugins":{
		"ShaderHook":"org.dark.shaders.util.ShaderHook",
        "GLib_ArcEffectOnOverload":"org.dark.graphics.plugins.ArcEffectOnOverload",
        "GLib_ShipDestructionEffects":"org.dark.graphics.plugins.ShipDestructionEffects",
        "GLib_WeaponDamageSmoke":"org.dark.graphics.plugins.WeaponDamageSmoke",
        "GLib_DistortionsPlugin":"org.dark.graphics.plugins.DistortionsPlugin",
        "GLib_LightInjector":"org.dark.graphics.plugins.LightInjector",
        "GLib_InsigniaPlugin":"org.dark.graphics.plugins.InsigniaPlugin",
        "GLib_MissileSelfDestruct":"org.dark.graphics.plugins.MissileSelfDestruct"
	},

    "graphics":{
        "icons":{
            "glib_insignia":"graphics/glib/icons/insignia/glib_insignaSheet.png"
        }
    }
}